…
  return(Genome_recovery)
}

RP_L19_genome_recovery_rates_SCG_taxonomy_list <- purrr::map(taxonomic_ranks_GTDB, ~find_genome_recovery_rate(item_additional_data_L19, taxonomic_rank = .x))

RP_L19_genome_recovery_rates_SCG_taxonomy <- bind_rows(RP_L19_genome_recovery_rates_SCG_taxonomy_list)

RP_L19_genome_recovery_rates_SCG_taxonomy
```

    # A tibble: 343 × 9
       taxa_name       num_M…¹ num_R…² num_G…³ total…⁴ MAG_r…⁵ REF_r…⁶ total…⁷ rank 
       <chr>             <int>   <int>   <int>   <int>   <dbl>   <dbl>   <dbl> <chr>
     1 Bacteria            163      59     199     272   0.599   0.217   0.732 t_do…
     2 <NA>                  4       0       4       5   0.8     0       0.8   t_do…
     3 Actinomycetota       21      11      27      39   0.538   0.282   0.692 t_ph…
     4 Bacillota            31      18      42      59   0.525   0.305   0.712 t_ph…
     5 Bacteroidota         46      10      50      58   0.793   0.172   0.862 t_ph…
     6 Campylobactero…       7       4      10      12   0.583   0.333   0.833 t_ph…
     7 Fusobacteriota        5       4       8      12   0.417   0.333   0.667 t_ph…
     8 Patescibacteria      35       6      39      52   0.673   0.115   0.75  t_ph…
     9 Pseudomonadota       16       6      21      34   0.471   0.176   0.618 t_ph…
    10 Spirochaetota         2       0       2       6   0.333   0       0.333 t_ph…
    # … with 333 more rows, and abbreviated variable names ¹​num_MAGs, ²​num_REFGs,
    #   ³​num_Genomes, ⁴​total_detected, ⁵​MAG_recovery_rate, ⁶​REF_recovery_rate,
    #   ⁷​total_genome_recovery_rate
…
  return(MAG_recovery)
}

RP_S15_genome_recovery_rates_SCG_taxonomy_list <- purrr::map(taxonomic_ranks_GTDB, ~find_MAG_recovery_rate(item_additional_data_S15, taxonomic_rank = .x))

RP_S15_genome_recovery_rates_SCG_taxonomy <- bind_rows(RP_S15_genome_recovery_rates_SCG_taxonomy_list) %>% mutate(SCG = "Ribosomal_S15")

RP_S15_genome_recovery_rates_SCG_taxonomy
```

    # A tibble: 2,323 × 6
       taxa_name         num_MAGs total_detected MAG_recovery_rate rank     SCG     
       <chr>                <int>          <int>             <dbl> <chr>    <chr>   
     1 Bacteria              1569           2219            0.707  t_domain Ribosom…
     2 <NA>                    13            137            0.0949 t_domain Ribosom…
     3 Archaea                  6              7            0.857  t_domain Ribosom…
     4 Bacillota             1225           1721            0.712  t_phylum Ribosom…
     5 <NA>                    13            137            0.0949 t_phylum Ribosom…
     6 Bacteroidota            96            121            0.793  t_phylum Ribosom…
     7 Pseudomonadota          66            111            0.595  t_phylum Ribosom…
     8 Actinomycetota          46             95            0.484  t_phylum Ribosom…
     9 Cyanobacteriota         47             62            0.758  t_phylum Ribosom…
    10 Verrucomicrobiota       24             29            0.828  t_phylum Ribosom…
    # … with 2,313 more rows
…
