…
You can find the result at `WW_TABLES/GROUP.xlsx`.

Anways. This data can be accessed within the GRE under the variable names `pn_group` and `ps_group`. If you don't have these variables, the quickest way to get them would be

```R
request_scvs <- FALSE
request_regs <- FALSE
withRestarts(source("load_data.R"), terminate=function() message('load_data.R: data already loaded. Nice.'))
```

Here is what `pn_group` looks like, for example:

```
> pn_group
# A tibble: 195 × 9
   DTL_group RSA_group      pn       DTL DTL_range       RSA RSA_range   s_sites ns_sites
       <dbl>     <dbl>   <dbl>     <dbl> <chr>         <dbl> <chr>         <dbl>    <dbl>
 1         0         0 0.00147 -2.22e-16 [0.0,5.0) -2.22e-16 [0.0,0.01)    1487.    4570.
 2         0         1 0.00152 -2.22e-16 [0.0,5.0)  9.95e- 3 [0.01,0.03)    581.    2233.
 3         0         2 0.00124 -2.22e-16 [0.0,5.0)  2.88e- 2 [0.03,0.06)    763.    2729.
 4         0         3 0.00145 -2.22e-16 [0.0,5.0)  5.81e- 2 [0.06,0.1)     713.    2614.
 5         0         4 0.00169 -2.22e-16 [0.0,5.0)  9.82e- 2 [0.1,0.15)     580.    2132.
 6         0         5 0.00154 -2.22e-16 [0.0,5.0)  1.45e- 1 [0.15,0.2)     506.    1816.
 7         0         6 0.00214 -2.22e-16 [0.0,5.0)  2.01e- 1 [0.2,0.26)     421.    1553.
 8         0         7 0.00257 -2.22e-16 [0.0,5.0)  2.62e- 1 [0.26,0.32)    321.    1221.
 9         0         8 0.00292 -2.22e-16 [0.0,5.0)  3.23e- 1 [0.32,0.39)    254.     964.
10         0         9 0.00469 -2.22e-16 [0.0,5.0)  3.90e- 1 [0.39,0.46)    199.     809.
# … with 185 more rows
```
…
Which yields this.

```
# A tibble: 799 × 5
   gene_callers_id cor_temperature function_COG20_FUNCT… function_Pfam    
             <dbl>           <dbl> <chr>                 <chr>            
 1            1962        -0.75071 Cold shock protein, … 'Cold-shock' DNA…
 2            1309        -0.74748 Glycine/D-amino acid… FAD dependent ox…
 3            1589        -0.72689 Tripartite-type tric… Tripartite trica…
 4            1552        -0.71155 Bacterial nucleoid D… Bacterial DNA-bi…
 5            1825        -0.65728 ABC-type transport s… Bacterial extrac…
 6            2687        -0.63746 Ribosomal protein S4… Ribosomal protei…
 7            1316        -0.61160 (p)ppGpp synthase/hy… ACT domain;HD do…
 8            1832        -0.61039 Regulator of proteas… SPFH domain / Ba…
 9            1278        -0.61003 Ribosomal protein S5… Ribosomal protei…
10            1855        -0.60929 Geranylgeranyl pyrop… Polyprenyl synth…
# … with 789 more rows, and 1 more variable: function_KOfam <chr>
```
…
